risc_v_pro/code/riscv_output.vcd
$date
	Thu Nov 14 06:20:24 2024
$end
$version
	Icarus Verilog
$end
$timescale
	1ns
$end
$scope module mux3 $end
$var wire 8 ! d0 [7:0] $end
$var wire 8 " d1 [7:0] $end
$var wire 8 # d2 [7:0] $end
$var wire 2 $ sel [1:0] $end
$var wire 8 % y [7:0] $end
$upscope $end
$scope module tb $end
$var wire 32 & WriteData [31:0] $end
$var wire 32 ' Result [31:0] $end
$var wire 32 ( ReadData [31:0] $end
$var wire 32 ) PC [31:0] $end
$var wire 1 * MemWrite $end
$var wire 32 + DataAdr [31:0] $end
$var reg 32 , Ext_DataAdr [31:0] $end
$var reg 1 - Ext_MemWrite $end
$var reg 32 . Ext_WriteData [31:0] $end
$var reg 1 / clk $end
$var reg 1 0 reset $end
$var integer 32 1 fault_instrs [31:0] $end
$var integer 32 2 flag [31:0] $end
$var integer 32 3 fw [31:0] $end
$var integer 32 4 i [31:0] $end
$scope module uut $end
$var wire 32 5 Ext_DataAdr [31:0] $end
$var wire 1 - Ext_MemWrite $end
$var wire 32 6 Ext_WriteData [31:0] $end
$var wire 1 / clk $end
$var wire 1 0 reset $end
$var wire 32 7 WriteData_rv32 [31:0] $end
$var wire 32 8 WriteData [31:0] $end
$var wire 32 9 Result [31:0] $end
$var wire 32 : ReadData [31:0] $end
$var wire 32 ; PC [31:0] $end
$var wire 1 < MemWrite_rv32 $end
$var wire 1 * MemWrite $end
$var wire 32 = Instr [31:0] $end
$var wire 32 > DataAdr_rv32 [31:0] $end
$var wire 32 ? DataAdr [31:0] $end
$scope module datamem $end
$var wire 1 / clk $end
$var wire 3 @ funct3 [2:0] $end
$var wire 32 A wr_addr [31:0] $end
$var wire 32 B wr_data [31:0] $end
$var wire 1 * wr_en $end
$var wire 32 C word_addr [31:0] $end
$var reg 32 D rd_data_mem [31:0] $end
$upscope $end
$scope module instrmem $end
$var wire 32 E instr [31:0] $end
$var wire 32 F instr_addr [31:0] $end
$upscope $end
$scope module rvcpu $end
$var wire 32 G Instr [31:0] $end
$var wire 32 H ReadData [31:0] $end
$var wire 1 / clk $end
$var wire 1 0 reset $end
$var wire 1 I Zero $end
$var wire 2 J ResultSrc [1:0] $end
$var wire 32 K Result [31:0] $end
$var wire 1 L RegWrite $end
$var wire 1 M PCSrc $end
$var wire 32 N PC [31:0] $end
$var wire 32 O Mem_WrData [31:0] $end
$var wire 32 P Mem_WrAddr [31:0] $end
$var wire 1 < MemWrite $end
$var wire 1 Q Jump $end
$var wire 1 R Jalr $end
$var wire 2 S ImmSrc [1:0] $end
$var wire 1 T ALUSrc $end
$var wire 1 U ALUR31 $end
$var wire 4 V ALUControl [3:0] $end
$scope module c $end
$var wire 1 M PCSrc $end
$var wire 3 W funct3 [2:0] $end
$var wire 1 X funct7b5 $end
$var wire 7 Y op [6:0] $end
$var wire 1 I Zero $end
$var wire 2 Z ResultSrc [1:0] $end
$var wire 1 L RegWrite $end
$var wire 1 < MemWrite $end
$var wire 1 Q Jump $end
$var wire 1 R Jalr $end
$var wire 2 [ ImmSrc [1:0] $end
$var wire 1 \ Branch $end
$var wire 1 T ALUSrc $end
$var wire 1 U ALUR31 $end
$var wire 2 ] ALUOp [1:0] $end
$var wire 4 ^ ALUControl [3:0] $end
$scope module ad $end
$var wire 3 _ funct3 [2:0] $end
$var wire 1 X funct7b5 $end
$var wire 1 ` opb5 $end
$var wire 2 a ALUOp [1:0] $end
$var reg 4 b ALUControl [3:0] $end
$upscope $end
$scope module md $end
$var wire 3 c funct3 [2:0] $end
$var wire 7 d op [6:0] $end
$var wire 1 I Zero $end
$var wire 2 e ResultSrc [1:0] $end
$var wire 1 L RegWrite $end
$var wire 1 < MemWrite $end
$var wire 1 Q Jump $end
$var wire 1 R Jalr $end
$var wire 2 f ImmSrc [1:0] $end
$var wire 1 \ Branch $end
$var wire 1 T ALUSrc $end
$var wire 1 U ALUR31 $end
$var wire 2 g ALUOp [1:0] $end
$var reg 1 \ TakeBranch $end
$var reg 11 h controls [10:0] $end
$upscope $end
$upscope $end
$scope module dp $end
$var wire 4 i ALUControl [3:0] $end
$var wire 1 T ALUSrc $end
$var wire 2 j ImmSrc [1:0] $end
$var wire 32 k Instr [31:0] $end
$var wire 1 R Jalr $end
$var wire 32 l Mem_WrAddr [31:0] $end
$var wire 32 m Mem_WrData [31:0] $end
$var wire 1 M PCSrc $end
$var wire 32 n ReadData [31:0] $end
$var wire 1 L RegWrite $end
$var wire 2 o ResultSrc [1:0] $end
$var wire 1 / clk $end
$var wire 1 0 reset $end
$var wire 32 p lAuiPC [31:0] $end
$var wire 1 I Zero $end
$var wire 32 q WriteData [31:0] $end
$var wire 32 r SrcB [31:0] $end
$var wire 32 s SrcA [31:0] $end
$var wire 32 t Result [31:0] $end
$var wire 32 u PCTarget [31:0] $end
$var wire 32 v PCPlus4 [31:0] $end
$var wire 32 w PCNext [31:0] $end
$var wire 32 x PCJalr [31:0] $end
$var wire 32 y PC [31:0] $end
$var wire 32 z ImmExt [31:0] $end
$var wire 32 { AuiPC [31:0] $end
$var wire 32 | ALUResult [31:0] $end
$var wire 1 U ALUR31 $end
$scope module alu $end
$var wire 4 } alu_ctrl [3:0] $end
$var wire 1 I zero $end
$var wire 32 ~ b [31:0] $end
$var wire 32 !" a [31:0] $end
$var reg 32 "" alu_out [31:0] $end
$upscope $end
$scope module auipcadder $end
$var wire 32 #" a [31:0] $end
$var wire 32 $" sum [31:0] $end
$var wire 32 %" b [31:0] $end
$upscope $end
$scope module ext $end
$var wire 2 &" immsrc [1:0] $end
$var wire 25 '" instr [31:7] $end
$var reg 32 (" immext [31:0] $end
$upscope $end
$scope module jalrmux $end
$var wire 32 )" d1 [31:0] $end
$var wire 1 R sel $end
$var wire 32 *" y [31:0] $end
$var wire 32 +" d0 [31:0] $end
$upscope $end
$scope module lauipcmux $end
$var wire 32 ," d0 [31:0] $end
$var wire 32 -" d1 [31:0] $end
$var wire 1 ." sel $end
$var wire 32 /" y [31:0] $end
$upscope $end
$scope module pcadd4 $end
$var wire 32 0" b [31:0] $end
$var wire 32 1" sum [31:0] $end
$var wire 32 2" a [31:0] $end
$upscope $end
$scope module pcaddbranch $end
$var wire 32 3" b [31:0] $end
$var wire 32 4" sum [31:0] $end
$var wire 32 5" a [31:0] $end
$upscope $end
$scope module pcmux $end
$var wire 32 6" d0 [31:0] $end
$var wire 32 7" d1 [31:0] $end
$var wire 1 M sel $end
$var wire 32 8" y [31:0] $end
$upscope $end
$scope module pcreg $end
$var wire 1 / clk $end
$var wire 32 9" d [31:0] $end
$var wire 1 0 rst $end
$var reg 32 :" q [31:0] $end
$upscope $end
$scope module resultmux $end
$var wire 32 ;" d0 [31:0] $end
$var wire 32 <" d1 [31:0] $end
$var wire 32 =" d2 [31:0] $end
$var wire 32 >" d3 [31:0] $end
$var wire 2 ?" sel [1:0] $end
$var wire 32 @" y [31:0] $end
$upscope $end
$scope module rf $end
$var wire 1 / clk $end
$var wire 5 A" rd_addr1 [4:0] $end
$var wire 5 B" rd_addr2 [4:0] $end
$var wire 5 C" wr_addr [4:0] $end
$var wire 32 D" wr_data [31:0] $end
$var wire 1 L wr_en $end
$var wire 32 E" rd_data2 [31:0] $end
$var wire 32 F" rd_data1 [31:0] $end
$var integer 32 G" i [31:0] $end
$upscope $end
$scope module srcbmux $end
$var wire 32 H" d0 [31:0] $end
$var wire 32 I" d1 [31:0] $end
$var wire 1 T sel $end
$var wire 32 J" y [31:0] $end
$upscope $end
$upscope $end
$upscope $end
$upscope $end
$upscope $end
$enddefinitions $end
#0
$dumpvars
b1 J"
b1 I"
b0 H"
b100000 G"
b0 F"
b0 E"
b1 D"
b1 C"
b1 B"
b0 A"
b1 @"
b0 ?"
b100000000000000000000 >"
b100 ="
bx <"
b1 ;"
b0 :"
b100 9"
b100 8"
b1 7"
b100 6"
b0 5"
b1 4"
b1 3"
b0 2"
b100 1"
b100 0"
b100000000000000000000 /"
0."
b100000000000000000000 -"
b100000000000000000000 ,"
b100 +"
b100 *"
b1 )"
b1 ("
b10000000000001 '"
b0 &"
b0 %"
b100000000000000000000 $"
b100000000000000000000 #"
b1 ""
b0 !"
b1 ~
b0 }
b1 |
b100000000000000000000 {
b1 z
b0 y
b100 x
b100 w
b100 v
b1 u
b1 t
b0 s
b1 r
b0 q
b100000000000000000000 p
b0 o
bx n
b0 m
b1 l
b100000000000010010011 k
b0 j
b0 i
b10010001000 h
b10 g
b0 f
b0 e
b10011 d
b0 c
b0 b
b10 a
0`
b0 _
b0 ^
b10 ]
0\
b0 [
b0 Z
b10011 Y
0X
b0 W
b0 V
0U
1T
b0 S
0R
0Q
b1 P
b0 O
b0 N
0M
1L
b1 K
b0 J
0I
bx H
b100000000000010010011 G
b0 F
b100000000000010010011 E
bx D
b0 C
b0 B
b0 A
b0 @
b0 ?
b1 >
b100000000000010010011 =
0<
b0 ;
bx :
b1 9
b0 8
b0 7
b0 6
b0 5
b0 4
b0 3
b0 2
b0 1
10
1/
b0 .
0-
b0 ,
b0 +
0*
b0 )
bx (
b1 '
b0 &
bz %
bz $
bz #
bz "
bz !
$end
#5
0/
#10
b10000 '
b10000 9
b10000 K
b10000 t
b10000 @"
b10000 D"
b100 C
b10000 >
b10000 P
b10000 l
b10000 |
b10000 ""
b10000 )"
b10000 ;"
b10000 r
b10000 ~
b10000 J"
b10000 z
b10000 ("
b10000 3"
b10000 I"
b0 &
b0 8
b0 B
b1000 x
b1000 *"
b1000 9"
b10000 B"
b10 C"
b100000000000000010 '"
b1000000000000000000000000 #"
b1000000000000000000000000 -"
b0 7
b0 O
b0 m
b0 q
b0 E"
b0 H"
b1000 w
b1000 +"
b1000 8"
b1000000000000000000000100 p
b1000000000000000000000100 /"
b1000000000000000000000100 >"
b1000000000000000100010011 =
b1000000000000000100010011 E
b1000000000000000100010011 G
b1000000000000000100010011 k
b10100 u
b10100 4"
b10100 7"
b1000 v
b1000 1"
b1000 6"
b1000 ="
b1000000000000000000000100 {
b1000000000000000000000100 $"
b1000000000000000000000100 ,"
b100 )
b100 ;
b100 F
b100 N
b100 y
b100 %"
b100 2"
b100 5"
b100 :"
1/
b10000 +
b10000 ?
b10000 A
00
#15
0/
#20
b11111111111111111111111111111101 '
b11111111111111111111111111111101 9
b11111111111111111111111111111101 K
b11111111111111111111111111111101 t
b11111111111111111111111111111101 @"
b11111111111111111111111111111101 D"
b111111 C
1U
b11111111111111111111111111111101 +
b11111111111111111111111111111101 ?
b11111111111111111111111111111101 A
b11111111111111111111111111111101 >
b11111111111111111111111111111101 P
b11111111111111111111111111111101 l
b11111111111111111111111111111101 |
b11111111111111111111111111111101 ""
b11111111111111111111111111111101 )"
b11111111111111111111111111111101 ;"
b11111111111111111111111111111101 r
b11111111111111111111111111111101 ~
b11111111111111111111111111111101 J"
b11111111111111111111111111111101 z
b11111111111111111111111111111101 ("
b11111111111111111111111111111101 3"
b11111111111111111111111111111101 I"
b1100 x
b1100 *"
b1100 9"
1X
b11101 B"
b11 C"
b1111111111010000000000011 '"
b11111111110100000000000000000000 #"
b11111111110100000000000000000000 -"
b1100 w
b1100 +"
b1100 8"
b11111111110100000000000000001000 p
b11111111110100000000000000001000 /"
b11111111110100000000000000001000 >"
b11111111110100000000000110010011 =
b11111111110100000000000110010011 E
b11111111110100000000000110010011 G
b11111111110100000000000110010011 k
b101 u
b101 4"
b101 7"
b1100 v
b1100 1"
b1100 6"
b1100 ="
b11111111110100000000000000001000 {
b11111111110100000000000000001000 $"
b11111111110100000000000000001000 ,"
b1000 )
b1000 ;
b1000 F
b1000 N
b1000 y
b1000 %"
b1000 2"
b1000 5"
b1000 :"
1/
#25
b1 4
0/
#30
b0 '
b0 9
b0 K
b0 t
b0 @"
b0 D"
b0 C
1I
0U
b0 +
b0 ?
b0 A
b0 >
b0 P
b0 l
b0 |
b0 ""
b0 )"
b0 ;"
b0 r
b0 ~
b0 J"
b0 z
b0 ("
b0 3"
b0 I"
b10000 x
b10000 *"
b10000 9"
0X
b0 B"
b100 C"
b100 '"
b0 #"
b0 -"
b10000 w
b10000 +"
b10000 8"
b1100 p
b1100 /"
b1100 >"
b1000010011 =
b1000010011 E
b1000010011 G
b1000010011 k
b1100 u
b1100 4"
b1100 7"
b10000 v
b10000 1"
b10000 6"
b10000 ="
b1100 {
b1100 $"
b1100 ,"
b1100 )
b1100 ;
b1100 F
b1100 N
b1100 y
b1100 %"
b1100 2"
b1100 5"
b1100 :"
1/
#35
0/
#40
b1001 '
b1001 9
b1001 K
b1001 t
b1001 @"
b1001 D"
b10 C
0I
b1001 +
b1001 ?
b1001 A
b1001 >
b1001 P
b1001 l
b1001 |
b1001 ""
b1001 )"
b1001 ;"
b1100 r
b1100 ~
b1100 J"
b11111111111111111111111111111101 s
b11111111111111111111111111111101 !"
b11111111111111111111111111111101 F"
b1100 z
b1100 ("
b1100 3"
b1100 I"
b10100 x
b10100 *"
b10100 9"
b11 A"
b1100 B"
b101 C"
b11000001100000101 '"
b110000011000000000000000 #"
b110000011000000000000000 -"
b10100 w
b10100 +"
b10100 8"
b110000011000000000010000 p
b110000011000000000010000 /"
b110000011000000000010000 >"
b110000011000001010010011 =
b110000011000001010010011 E
b110000011000001010010011 G
b110000011000001010010011 k
b11100 u
b11100 4"
b11100 7"
b10100 v
b10100 1"
b10100 6"
b10100 ="
b110000011000000000010000 {
b110000011000000000010000 $"
b110000011000000000010000 ,"
b10000 )
b10000 ;
b10000 F
b10000 N
b10000 y
b10000 %"
b10000 2"
b10000 5"
b10000 :"
1/
#45
b10 4
0/
#50
b1000000 '
b1000000 9
b1000000 K
b1000000 t
b1000000 @"
b1000000 D"
b10000 C
b1000000 +
b1000000 ?
b1000000 A
b1000000 >
b1000000 P
b1000000 l
b1000000 |
b1000000 ""
b1000000 )"
b1000000 ;"
b10000 &
b10000 8
b10000 B
b10 r
b10 ~
b10 J"
b110 V
b110 ^
b110 b
b110 i
b110 }
b10000 s
b10000 !"
b10000 F"
b10000 7
b10000 O
b10000 m
b10000 q
b10000 E"
b10000 H"
b10 z
b10 ("
b10 3"
b10 I"
bx (
bx :
bx D
bx H
bx n
bx <"
b11000 x
b11000 *"
b11000 9"
b1 W
b1 _
b1 c
b10 A"
b10 B"
b110 C"
b100001000100110 '"
b1000010001000000000000 #"
b1000010001000000000000 -"
b1 @
b11000 w
b11000 +"
b11000 8"
b1000010001000000010100 p
b1000010001000000010100 /"
b1000010001000000010100 >"
b1000010001001100010011 =
b1000010001001100010011 E
b1000010001001100010011 G
b1000010001001100010011 k
b10110 u
b10110 4"
b10110 7"
b11000 v
b11000 1"
b11000 6"
b11000 ="
b1000010001000000010100 {
b1000010001000000010100 $"
b1000010001000000010100 ,"
b10100 )
b10100 ;
b10100 F
b10100 N
b10100 y
b10100 %"
b10100 2"
b10100 5"
b10100 :"
1/
#55
b11 4
0/
#60
b0 '
b0 9
b0 K
b0 t
b0 @"
b0 D"
b0 C
1I
b0 +
b0 ?
b0 A
b0 >
b0 P
b0 l
b0 |
b0 ""
b0 )"
b0 ;"
b0 &
b0 8
b0 B
b11111111111111111111111111110000 r
b11111111111111111111111111110000 ~
b11111111111111111111111111110000 J"
b101 V
b101 ^
b101 b
b101 i
b101 }
b0 7
b0 O
b0 m
b0 q
b0 E"
b0 H"
b11111111111111111111111111110000 z
b11111111111111111111111111110000 ("
b11111111111111111111111111110000 3"
b11111111111111111111111111110000 I"
b11100 x
b11100 *"
b11100 9"
b10 W
b10 _
b10 c
1X
b10000 B"
b111 C"
b1111111100000001001000111 '"
b11111111000000010010000000000000 #"
b11111111000000010010000000000000 -"
b10 @
b11100 w
b11100 +"
b11100 8"
b11111111000000010010000000011000 p
b11111111000000010010000000011000 /"
b11111111000000010010000000011000 >"
b11111111000000010010001110010011 =
b11111111000000010010001110010011 E
b11111111000000010010001110010011 G
b11111111000000010010001110010011 k
b1000 u
b1000 4"
b1000 7"
b11100 v
b11100 1"
b11100 6"
b11100 ="
b11111111000000010010000000011000 {
b11111111000000010010000000011000 $"
b11111111000000010010000000011000 ,"
b11000 )
b11000 ;
b11000 F
b11000 N
b11000 y
b11000 %"
b11000 2"
b11000 5"
b11000 :"
1/
#65
b100 4
0/
#70
b1 '
b1 9
b1 K
b1 t
b1 @"
b1 D"
0I
b1 +
b1 ?
b1 A
b1 >
b1 P
b1 l
b1 |
b1 ""
b1 )"
b1 ;"
b1000 V
b1000 ^
b1000 b
b1000 i
b1000 }
b100000 x
b100000 *"
b100000 9"
b11 W
b11 _
b11 c
b1000 C"
b1111111100000001001101000 '"
b11111111000000010011000000000000 #"
b11111111000000010011000000000000 -"
b11 @
b100000 w
b100000 +"
b100000 8"
b11111111000000010011000000011100 p
b11111111000000010011000000011100 /"
b11111111000000010011000000011100 >"
b11111111000000010011010000010011 =
b11111111000000010011010000010011 E
b11111111000000010011010000010011 G
b11111111000000010011010000010011 k
b1100 u
b1100 4"
b1100 7"
b100000 v
b100000 1"
b100000 6"
b100000 ="
b11111111000000010011000000011100 {
b11111111000000010011000000011100 $"
b11111111000000010011000000011100 ,"
b11100 )
b11100 ;
b11100 F
b11100 N
b11100 y
b11100 %"
b11100 2"
b11100 5"
b11100 :"
1/
#75
b101 4
0/
#80
b10 '
b10 9
b10 K
b10 t
b10 @"
b10 D"
b10 +
b10 ?
b10 A
b10 >
b10 P
b10 l
b10 |
b10 ""
b10 )"
b10 ;"
b10010 r
b10010 ~
b10010 J"
b100 V
b100 ^
b100 b
b100 i
b100 }
b10010 z
b10010 ("
b10010 3"
b10010 I"
b0xxxxxxxx (
b0xxxxxxxx :
b0xxxxxxxx D
b0xxxxxxxx H
b0xxxxxxxx n
b0xxxxxxxx <"
b100100 x
b100100 *"
b100100 9"
b100 W
b100 _
b100 c
0X
b10010 B"
b1001 C"
b100100001010001001 '"
b1001000010100000000000000 #"
b1001000010100000000000000 -"
b100 @
b100100 w
b100100 +"
b100100 8"
b1001000010100000000100000 p
b1001000010100000000100000 /"
b1001000010100000000100000 >"
b1001000010100010010010011 =
b1001000010100010010010011 E
b1001000010100010010010011 G
b1001000010100010010010011 k
b110010 u
b110010 4"
b110010 7"
b100100 v
b100100 1"
b100100 6"
b100100 ="
b1001000010100000000100000 {
b1001000010100000000100000 $"
b1001000010100000000100000 ,"
b100000 )
b100000 ;
b100000 F
b100000 N
b100000 y
b100000 %"
b100000 2"
b100000 5"
b100000 :"
1/
#85
b110 4
0/
#90
b11111111111111111111111111111 '
b11111111111111111111111111111 9
b11111111111111111111111111111 K
b11111111111111111111111111111 t
b11111111111111111111111111111 @"
b11111111111111111111111111111 D"
b111111 C
b11111111111111111111111111111 +
b11111111111111111111111111111 ?
b11111111111111111111111111111 A
b11111111111111111111111111111 >
b11111111111111111111111111111 P
b11111111111111111111111111111 l
b11111111111111111111111111111 |
b11111111111111111111111111111 ""
b11111111111111111111111111111 )"
b11111111111111111111111111111 ;"
b11111111111111111111111111111101 &
b11111111111111111111111111111101 8
b11111111111111111111111111111101 B
b11 r
b11 ~
b11 J"
b111 V
b111 ^
b111 b
b111 i
b111 }
b11111111111111111111111111111101 s
b11111111111111111111111111111101 !"
b11111111111111111111111111111101 F"
b11111111111111111111111111111101 7
b11111111111111111111111111111101 O
b11111111111111111111111111111101 m
b11111111111111111111111111111101 q
b11111111111111111111111111111101 E"
b11111111111111111111111111111101 H"
b11 z
b11 ("
b11 3"
b11 I"
b0 (
b0 :
b0 D
b0 H
b0 n
b0 <"
b101000 x
b101000 *"
b101000 9"
b101 W
b101 _
b101 c
b11 A"
b11 B"
b1010 C"
b110001110101010 '"
b1100011101000000000000 #"
b1100011101000000000000 -"
b101 @
b101000 w
b101000 +"
b101000 8"
b1100011101000000100100 p
b1100011101000000100100 /"
b1100011101000000100100 >"
b1100011101010100010011 =
b1100011101010100010011 E
b1100011101010100010011 G
b1100011101010100010011 k
b100111 u
b100111 4"
b100111 7"
b101000 v
b101000 1"
b101000 6"
b101000 ="
b1100011101000000100100 {
b1100011101000000100100 $"
b1100011101000000100100 ,"
b100100 )
b100100 ;
b100100 F
b100100 N
b100100 y
b100100 %"
b100100 2"
b100100 5"
b100100 :"
1/
#95
b111 4
0/
#100
b11111111111111111111111111111111 '
b11111111111111111111111111111111 9
b11111111111111111111111111111111 K
b11111111111111111111111111111111 t
b11111111111111111111111111111111 @"
b11111111111111111111111111111111 D"
1U
b11111111111111111111111111111111 +
b11111111111111111111111111111111 ?
b11111111111111111111111111111111 A
b11111111111111111111111111111111 >
b11111111111111111111111111111111 P
b11111111111111111111111111111111 l
b11111111111111111111111111111111 |
b11111111111111111111111111111111 ""
b11111111111111111111111111111111 )"
b11111111111111111111111111111111 ;"
b10000000011 r
b10000000011 ~
b10000000011 J"
b1001 V
b1001 ^
b1001 b
b1001 i
b1001 }
b10000000011 z
b10000000011 ("
b10000000011 3"
b10000000011 I"
b101100 x
b101100 *"
b101100 9"
1X
b1011 C"
b100000000110001110101011 '"
b1000000001100011101000000000000 #"
b1000000001100011101000000000000 -"
b101100 w
b101100 +"
b101100 8"
b1000000001100011101000000101000 p
b1000000001100011101000000101000 /"
b1000000001100011101000000101000 >"
b1000000001100011101010110010011 =
b1000000001100011101010110010011 E
b1000000001100011101010110010011 G
b1000000001100011101010110010011 k
b10000101011 u
b10000101011 4"
b10000101011 7"
b101100 v
b101100 1"
b101100 6"
b101100 ="
b1000000001100011101000000101000 {
b1000000001100011101000000101000 $"
b1000000001100011101000000101000 ,"
b101000 )
b101000 ;
b101000 F
b101000 N
b101000 y
b101000 %"
b101000 2"
b101000 5"
b101000 :"
1/
#105
b1000 4
0/
#110
b11 r
b11 ~
b11 J"
b11 V
b11 ^
b11 b
b11 i
b11 }
b11 z
b11 ("
b11 3"
b11 I"
b110000 x
b110000 *"
b110000 9"
b110 W
b110 _
b110 c
0X
b1100 C"
b110001111001100 '"
b1100011110000000000000 #"
b1100011110000000000000 -"
b110 @
b110000 w
b110000 +"
b110000 8"
b1100011110000000101100 p
b1100011110000000101100 /"
b1100011110000000101100 >"
b1100011110011000010011 =
b1100011110011000010011 E
b1100011110011000010011 G
b1100011110011000010011 k
b101111 u
b101111 4"
b101111 7"
b110000 v
b110000 1"
b110000 6"
b110000 ="
b1100011110000000101100 {
b1100011110000000101100 $"
b1100011110000000101100 ,"
b101100 )
b101100 ;
b101100 F
b101100 N
b101100 y
b101100 %"
b101100 2"
b101100 5"
b101100 :"
1/
#115
b1001 4
0/
#120
b1 '
b1 9
b1 K
b1 t
b1 @"
b1 D"
b0 C
0U
b1 +
b1 ?
b1 A
b1 >
b1 P
b1 l
b1 |
b1 ""
b1 )"
b1 ;"
b10 V
b10 ^
b10 b
b10 i
b10 }
b110100 x
b110100 *"
b110100 9"
b111 W
b111 _
b111 c
b1101 C"
b110001111101101 '"
b1100011111000000000000 #"
b1100011111000000000000 -"
b111 @
b110100 w
b110100 +"
b110100 8"
b1100011111000000110000 p
b1100011111000000110000 /"
b1100011111000000110000 >"
b1100011111011010010011 =
b1100011111011010010011 E
b1100011111011010010011 G
b1100011111011010010011 k
b110011 u
b110011 4"
b110011 7"
b110100 v
b110100 1"
b110100 6"
b110100 ="
b1100011111000000110000 {
b1100011111000000110000 $"
b1100011111000000110000 ,"
b110000 )
b110000 ;
b110000 F
b110000 N
b110000 y
b110000 %"
b110000 2"
b110000 5"
b110000 :"
1/
#125
b1010 4
0/
#130
b10001 '
b10001 9
b10001 K
b10001 t
b10001 @"
b10001 D"
b100 C
b10001 +
b10001 ?
b10001 A
b10001 >
b10001 P
b10001 l
b10001 |
b10001 ""
b10001 )"
b10001 ;"
bx S
bx [
bx f
bx j
bx &"
0T
b1 &
b1 8
b1 B
b1 r
b1 ~
b1 J"
1`
b0 V
b0 ^
b0 b
b0 i
b0 }
b1xx00001000 h
b10000 s
b10000 !"
b10000 F"
b1 7
b1 O
b1 m
b1 q
b1 E"
b1 H"
bx z
bx ("
bx 3"
bx I"
bx (
bx :
bx D
bx H
bx n
bx <"
b111000 x
b111000 *"
b111000 9"
b110011 Y
b110011 d
b0 W
b0 _
b0 c
b10 A"
b1 B"
b1110 C"
b10001000001110 '"
b100010000000000000000 #"
b100010000000000000000 -"
1."
b0 @
b111000 w
b111000 +"
b111000 8"
b100010000000000000000 p
b100010000000000000000 /"
b100010000000000000000 >"
b100010000011100110011 =
b100010000011100110011 E
b100010000011100110011 G
b100010000011100110011 k
bx u
bx 4"
bx 7"
b111000 v
b111000 1"
b111000 6"
b111000 ="
b100010000000000110100 {
b100010000000000110100 $"
b100010000000000110100 ,"
b110100 )
b110100 ;
b110100 F
b110100 N
b110100 y
b110100 %"
b110100 2"
b110100 5"
b110100 :"
1/
#135
b1011 4
0/
#140
b1111 '
b1111 9
b1111 K
b1111 t
b1111 @"
b1111 D"
b11 C
b1111 +
b1111 ?
b1111 A
b1111 >
b1111 P
b1111 l
b1111 |
b1111 ""
b1111 )"
b1111 ;"
b1 V
b1 ^
b1 b
b1 i
b1 }
b1000000000100010000000000000000 p
b1000000000100010000000000000000 /"
b1000000000100010000000000000000 >"
b111100 x
b111100 *"
b111100 9"
1X
b1111 C"
b100000000010001000001111 '"
b1000000000100010000000000000000 #"
b1000000000100010000000000000000 -"
b111100 w
b111100 +"
b111100 8"
b1000000000100010000011110110011 =
b1000000000100010000011110110011 E
b1000000000100010000011110110011 G
b1000000000100010000011110110011 k
b111100 v
b111100 1"
b111100 6"
b111100 ="
b1000000000100010000000000111000 {
b1000000000100010000000000111000 $"
b1000000000100010000000000111000 ,"
b111000 )
b111000 ;
b111000 F
b111000 N
b111000 y
b111000 %"
b111000 2"
b111000 5"
b111000 :"
1/
#145
b1100 4
0/
#150
b100000 '
b100000 9
b100000 K
b100000 t
b100000 @"
b100000 D"
b1000 C
b100000 +
b100000 ?
b100000 A
b100000 >
b100000 P
b100000 l
b100000 |
b100000 ""
b100000 )"
b100000 ;"
b110 V
b110 ^
b110 b
b110 i
b110 }
b100010001000000000000 p
b100010001000000000000 /"
b100010001000000000000 >"
bx (
bx :
bx D
bx H
bx n
bx <"
b1000000 x
b1000000 *"
b1000000 9"
b1 W
b1 _
b1 c
0X
b10000 C"
b10001000110000 '"
b100010001000000000000 #"
b100010001000000000000 -"
b1 @
b1000000 w
b1000000 +"
b1000000 8"
b100010001100000110011 =
b100010001100000110011 E
b100010001100000110011 G
b100010001100000110011 k
b1000000 v
b1000000 1"
b1000000 6"
b1000000 ="
b100010001000000111100 {
b100010001000000111100 $"
b100010001000000111100 ,"
b111100 )
b111100 ;
b111100 F
b111100 N
b111100 y
b111100 %"
b111100 2"
b111100 5"
b111100 :"
1/
#155
b1101 4
0/
#160
b0 '
b0 9
b0 K
b0 t
b0 @"
b0 D"
b0 C
1I
b0 +
b0 ?
b0 A
b0 >
b0 P
b0 l
b0 |
b0 ""
b0 )"
b0 ;"
b11111111111111111111111111111101 r
b11111111111111111111111111111101 ~
b11111111111111111111111111111101 J"
b11111111111111111111111111111101 &
b11111111111111111111111111111101 8
b11111111111111111111111111111101 B
b101 V
b101 ^
b101 b
b101 i
b101 }
b11111111111111111111111111111101 7
b11111111111111111111111111111101 O
b11111111111111111111111111111101 m
b11111111111111111111111111111101 q
b11111111111111111111111111111101 E"
b11111111111111111111111111111101 H"
b1100010010000000000000 p
b1100010010000000000000 /"
b1100010010000000000000 >"
b1000100 x
b1000100 *"
b1000100 9"
b10 W
b10 _
b10 c
b11 B"
b10001 C"
b110001001010001 '"
b1100010010000000000000 #"
b1100010010000000000000 -"
b10 @
b1000100 w
b1000100 +"
b1000100 8"
b1100010010100010110011 =
b1100010010100010110011 E
b1100010010100010110011 G
b1100010010100010110011 k
b1000100 v
b1000100 1"
b1000100 6"
b1000100 ="
b1100010010000001000000 {
b1100010010000001000000 $"
b1100010010000001000000 ,"
b1000000 )
b1000000 ;
b1000000 F
b1000000 N
b1000000 y
b1000000 %"
b1000000 2"
b1000000 5"
b1000000 :"
1/
#165
b1110 4
0/
#170
b1 '
b1 9
b1 K
b1 t
b1 @"
b1 D"
0I
b1 +
b1 ?
b1 A
b1 >
b1 P
b1 l
b1 |
b1 ""
b1 )"
b1 ;"
b1000 V
b1000 ^
b1000 b
b1000 i
b1000 }
b1100010011000000000000 p
b1100010011000000000000 /"
b1100010011000000000000 >"
b1001000 x
b1001000 *"
b1001000 9"
b11 W
b11 _
b11 c
b10010 C"
b110001001110010 '"
b1100010011000000000000 #"
b1100010011000000000000 -"
b11 @
b1001000 w
b1001000 +"
b1001000 8"
b1100010011100100110011 =
b1100010011100100110011 E
b1100010011100100110011 G
b1100010011100100110011 k
b1001000 v
b1001000 1"
b1001000 6"
b1001000 ="
b1100010011000001000100 {
b1100010011000001000100 $"
b1100010011000001000100 ,"
b1000100 )
b1000100 ;
b1000100 F
b1000100 N
b1000100 y
b1000100 %"
b1000100 2"
b1000100 5"
b1000100 :"
1/
#175
b1111 4
0/
